EESchema Schematic File Version 4
LIBS:block-auto-cache
EELAYER 26 0
EELAYER END
$Descr A4 11693 8268
encoding utf-8
Sheet 1 1
Title ""
Date ""
Rev ""
Comp ""
Comment1 ""
Comment2 ""
Comment3 ""
Comment4 ""
$EndDescr
$Comp
L SW_Push_Lamp SW?
U 1 1 5D2E2E1B
P 23200 22000
F 0 "SW?" H 23225 22225 50  0000 L CNN
F 1 "SW_Push_Lamp" H 23200 21875 50  0000 C CNN
F 2 "" H 23200 22300 50  0001 C CNN
F 3 "" H 23200 22300 50  0001 C CNN
	1    23200 22000
	1    0    0    -1  
$EndComp
$Comp
L power:+12V #PWR02
U 1 1 5D2E3DFC
P 3100 4800
F 0 "#PWR02" H 3100 4650 50  0001 C CNN
F 1 "+12V" H 3115 4973 50  0000 C CNN
F 2 "" H 3100 4800 50  0001 C CNN
F 3 "" H 3100 4800 50  0001 C CNN
	1    3100 4800
	0    -1   -1   0   
$EndComp
$Comp
L power:GND #PWR03
U 1 1 5D2E3E46
P 3150 4200
F 0 "#PWR03" H 3150 3950 50  0001 C CNN
F 1 "GND" H 3155 4027 50  0000 C CNN
F 2 "" H 3150 4200 50  0001 C CNN
F 3 "" H 3150 4200 50  0001 C CNN
	1    3150 4200
	0    1    1    0   
$EndComp
$Comp
L Relay:DIPxx-1Axx-12x K1
U 1 1 5D2E3ECD
P 6600 3500
F 0 "K1" V 6033 3500 50  0000 C CNN
F 1 "DIPxx-1Axx-12x" V 6124 3500 50  0000 C CNN
F 2 "Relay_THT:Relay_StandexMeder_DIP_LowProfile" H 6950 3450 50  0001 L CNN
F 3 "https://standexelectronics.com/wp-content/uploads/datasheet_reed_relay_DIP.pdf" H 6600 3500 50  0001 C CNN
	1    6600 3500
	0    1    1    0   
$EndComp
$Comp
L Relay:DIPxx-1Axx-12x K2
U 1 1 5D2E3F5B
P 6600 4600
F 0 "K2" V 6033 4600 50  0000 C CNN
F 1 "DIPxx-1Axx-12x" V 6124 4600 50  0000 C CNN
F 2 "Relay_THT:Relay_StandexMeder_DIP_LowProfile" H 6950 4550 50  0001 L CNN
F 3 "https://standexelectronics.com/wp-content/uploads/datasheet_reed_relay_DIP.pdf" H 6600 4600 50  0001 C CNN
	1    6600 4600
	0    1    1    0   
$EndComp
$Comp
L Switch:SW_SPST_Lamp SW2
U 1 1 5D2E4653
P 5500 1150
F 0 "SW2" V 5454 1342 50  0000 L CNN
F 1 "SW_SPST_Lamp" H 5200 1050 50  0000 L CNN
F 2 "" H 5500 1450 50  0001 C CNN
F 3 "" H 5500 1450 50  0001 C CNN
	1    5500 1150
	0    1    1    0   
$EndComp
$Comp
L Switch:SW_SPST_Lamp SW3
U 1 1 5D2E46A3
P 6450 1150
F 0 "SW3" V 6404 1342 50  0000 L CNN
F 1 "SW_SPST_Lamp" H 6200 1000 50  0000 L CNN
F 2 "" H 6450 1450 50  0001 C CNN
F 3 "" H 6450 1450 50  0001 C CNN
	1    6450 1150
	0    1    1    0   
$EndComp
$Comp
L LED:SFH4550 D3
U 1 1 5D2E47FC
P 8900 1700
F 0 "D3" H 8850 1485 50  0000 C CNN
F 1 "SFH4550" H 8850 1576 50  0000 C CNN
F 2 "LED_THT:LED_D5.0mm_IRGrey" H 8900 1875 50  0001 C CNN
F 3 "http://www.osram-os.com/Graphics/XPic3/00116140_0.pdf" H 8850 1700 50  0001 C CNN
	1    8900 1700
	-1   0    0    1   
$EndComp
$Comp
L LED:SFH4550 D4
U 1 1 5D2E48EA
P 8900 2100
F 0 "D4" H 8850 1885 50  0000 C CNN
F 1 "SFH4550" H 8850 1976 50  0000 C CNN
F 2 "LED_THT:LED_D5.0mm_IRGrey" H 8900 2275 50  0001 C CNN
F 3 "http://www.osram-os.com/Graphics/XPic3/00116140_0.pdf" H 8850 2100 50  0001 C CNN
	1    8900 2100
	-1   0    0    1   
$EndComp
$Comp
L LED:SFH4550 D5
U 1 1 5D2E4D2B
P 8900 3350
F 0 "D5" H 8850 3135 50  0000 C CNN
F 1 "SFH4550" H 8850 3226 50  0000 C CNN
F 2 "LED_THT:LED_D5.0mm_IRGrey" H 8900 3525 50  0001 C CNN
F 3 "http://www.osram-os.com/Graphics/XPic3/00116140_0.pdf" H 8850 3350 50  0001 C CNN
	1    8900 3350
	-1   0    0    1   
$EndComp
$Comp
L LED:SFH4550 D6
U 1 1 5D2E4D77
P 8900 3800
F 0 "D6" H 8850 3585 50  0000 C CNN
F 1 "SFH4550" H 8850 3676 50  0000 C CNN
F 2 "LED_THT:LED_D5.0mm_IRGrey" H 8900 3975 50  0001 C CNN
F 3 "http://www.osram-os.com/Graphics/XPic3/00116140_0.pdf" H 8850 3800 50  0001 C CNN
	1    8900 3800
	-1   0    0    1   
$EndComp
Wire Notes Line
	8400 2850 9550 2850
Wire Notes Line
	9550 2850 9550 4150
Wire Notes Line
	9550 4150 8400 4150
Wire Notes Line
	8400 4150 8400 2850
Wire Notes Line
	9550 1200 9550 2600
Wire Notes Line
	9550 2600 8400 2600
Wire Notes Line
	8400 2600 8400 1200
Wire Notes Line
	8400 1200 9550 1200
Text Notes 8750 2550 0    50   ~ 0
Передний свет
Text Notes 8800 4100 0    50   ~ 0
Задний свет
$Comp
L Switch:SW_Push_SPDT SW1
U 1 1 5D2E5F3F
P 4550 1150
F 0 "SW1" V 4504 1298 50  0000 L CNN
F 1 "SW_Push_SPDT" V 4595 1298 50  0000 L CNN
F 2 "" H 4550 1150 50  0001 C CNN
F 3 "" H 4550 1150 50  0001 C CNN
	1    4550 1150
	0    1    1    0   
$EndComp
$Comp
L Connector:Conn_01x03_Female J1
U 1 1 5D2E619D
P 2900 3250
F 0 "J1" H 2794 2925 50  0000 C CNN
F 1 "Conn_01x03_Female" H 2794 3016 50  0000 C CNN
F 2 "" H 2900 3250 50  0001 C CNN
F 3 "~" H 2900 3250 50  0001 C CNN
	1    2900 3250
	-1   0    0    1   
$EndComp
$Comp
L Device:Fuse F3
U 1 1 5D2E64BA
P 5900 4800
F 0 "F3" V 5703 4800 50  0000 C CNN
F 1 "Fuse" V 5794 4800 50  0000 C CNN
F 2 "" V 5830 4800 50  0001 C CNN
F 3 "~" H 5900 4800 50  0001 C CNN
	1    5900 4800
	0    1    1    0   
$EndComp
$Comp
L Device:Fuse F2
U 1 1 5D2E658B
P 5900 3700
F 0 "F2" V 5703 3700 50  0000 C CNN
F 1 "Fuse" V 5794 3700 50  0000 C CNN
F 2 "" V 5830 3700 50  0001 C CNN
F 3 "~" H 5900 3700 50  0001 C CNN
	1    5900 3700
	0    1    1    0   
$EndComp
Wire Wire Line
	6050 3700 6300 3700
Wire Wire Line
	8800 3350 8500 3350
Wire Wire Line
	8500 3350 8500 3600
Wire Wire Line
	8500 3800 8800 3800
Wire Wire Line
	8500 3600 7950 3600
Wire Wire Line
	7950 3600 7950 4800
Wire Wire Line
	7950 4800 6900 4800
Connection ~ 8500 3600
Wire Wire Line
	8500 3600 8500 3800
Wire Wire Line
	6900 3700 7750 3700
Wire Wire Line
	7750 3700 7750 1900
Wire Wire Line
	7750 1900 8600 1900
Wire Wire Line
	8600 1900 8600 1700
Wire Wire Line
	8600 1700 8800 1700
Wire Wire Line
	8600 1900 8600 2100
Wire Wire Line
	8600 2100 8800 2100
Connection ~ 8600 1900
Wire Wire Line
	9100 1700 9300 1700
Wire Wire Line
	9300 1700 9300 1900
Wire Wire Line
	9300 2100 9100 2100
Wire Wire Line
	9100 3350 9300 3350
Wire Wire Line
	9300 3350 9300 3600
Wire Wire Line
	9300 3800 9100 3800
Wire Wire Line
	6300 4400 5300 4400
Wire Wire Line
	5300 4400 5300 3700
Wire Wire Line
	6900 3300 7150 3300
Wire Wire Line
	7150 3300 7150 2850
Wire Wire Line
	6900 4400 7150 4400
Wire Wire Line
	7150 4400 7150 4000
Wire Wire Line
	7150 4000 5500 4000
Wire Wire Line
	5500 4000 5500 2900
Wire Notes Line
	7450 750  7450 1600
$Comp
L Device:LED D2
U 1 1 5D33B356
P 3500 1400
F 0 "D2" H 3491 1616 50  0000 C CNN
F 1 "LED" H 3491 1525 50  0000 C CNN
F 2 "" H 3500 1400 50  0001 C CNN
F 3 "~" H 3500 1400 50  0001 C CNN
	1    3500 1400
	1    0    0    -1  
$EndComp
$Comp
L Device:R R2
U 1 1 5D33B5D5
P 4100 1400
F 0 "R2" V 3893 1400 50  0000 C CNN
F 1 "R" V 3984 1400 50  0000 C CNN
F 2 "" V 4030 1400 50  0001 C CNN
F 3 "~" H 4100 1400 50  0001 C CNN
	1    4100 1400
	0    1    1    0   
$EndComp
$Comp
L Device:R R1
U 1 1 5D33B6E6
P 4100 1050
F 0 "R1" V 3893 1050 50  0000 C CNN
F 1 "R" V 3984 1050 50  0000 C CNN
F 2 "" V 4030 1050 50  0001 C CNN
F 3 "~" H 4100 1050 50  0001 C CNN
	1    4100 1050
	0    1    1    0   
$EndComp
$Comp
L Device:LED D1
U 1 1 5D33B78C
P 3500 1050
F 0 "D1" H 3491 1266 50  0000 C CNN
F 1 "LED" H 3491 1175 50  0000 C CNN
F 2 "" H 3500 1050 50  0001 C CNN
F 3 "~" H 3500 1050 50  0001 C CNN
	1    3500 1050
	1    0    0    -1  
$EndComp
Wire Notes Line
	3000 750  3000 1600
Wire Notes Line
	3000 750  7450 750 
Wire Notes Line
	3000 1600 7450 1600
Wire Wire Line
	3650 1400 3950 1400
Wire Wire Line
	3650 1050 3950 1050
$Comp
L Connector:Conn_01x05_Male J2
U 1 1 5D33E390
P 4800 2200
F 0 "J2" V 4953 1913 50  0000 R CNN
F 1 "Conn_01x05_Male" V 4862 1913 50  0000 R CNN
F 2 "" H 4800 2200 50  0001 C CNN
F 3 "~" H 4800 2200 50  0001 C CNN
	1    4800 2200
	0    -1   -1   0   
$EndComp
Wire Wire Line
	4450 1350 4450 1400
Wire Wire Line
	4450 1500 4600 1500
Wire Wire Line
	4600 1500 4600 2000
Wire Wire Line
	4650 1350 4650 1500
Wire Wire Line
	4650 1500 4700 1500
Wire Wire Line
	4700 1500 4700 1550
Wire Wire Line
	4250 1050 4350 1050
Wire Wire Line
	4350 1050 4350 1400
Wire Wire Line
	4350 1400 4450 1400
Connection ~ 4450 1400
Wire Wire Line
	4450 1400 4450 1500
Wire Wire Line
	4250 1400 4250 1550
Wire Wire Line
	4250 1550 4700 1550
Connection ~ 4700 1550
Wire Wire Line
	4700 1550 4700 2000
Wire Wire Line
	4800 900  4550 900 
Wire Wire Line
	4550 900  4550 950 
Wire Wire Line
	4800 900  4800 2000
Wire Wire Line
	3350 1050 3150 1050
Wire Wire Line
	3150 1050 3150 1250
Wire Wire Line
	3150 1400 3350 1400
Wire Wire Line
	2850 1250 3150 1250
Connection ~ 3150 1250
Wire Wire Line
	3150 1250 3150 1400
$Comp
L power:GND #PWR01
U 1 1 5D347748
P 2850 1250
F 0 "#PWR01" H 2850 1000 50  0001 C CNN
F 1 "GND" V 2855 1122 50  0000 R CNN
F 2 "" H 2850 1250 50  0001 C CNN
F 3 "" H 2850 1250 50  0001 C CNN
	1    2850 1250
	0    1    1    0   
$EndComp
$Comp
L power:+12V #PWR04
U 1 1 5D3478D2
P 5550 700
F 0 "#PWR04" H 5550 550 50  0001 C CNN
F 1 "+12V" H 5565 873 50  0000 C CNN
F 2 "" H 5550 700 50  0001 C CNN
F 3 "" H 5550 700 50  0001 C CNN
	1    5550 700 
	1    0    0    -1  
$EndComp
$Comp
L power:GND #PWR05
U 1 1 5D347995
P 6100 700
F 0 "#PWR05" H 6100 450 50  0001 C CNN
F 1 "GND" H 6105 527 50  0000 C CNN
F 2 "" H 6100 700 50  0001 C CNN
F 3 "" H 6100 700 50  0001 C CNN
	1    6100 700 
	-1   0    0    1   
$EndComp
Wire Wire Line
	5600 1450 5500 1450
Wire Wire Line
	5500 1450 5500 1350
Wire Wire Line
	5600 1450 5600 1350
Wire Wire Line
	6550 950  6550 850 
Wire Wire Line
	6550 850  6100 850 
Wire Wire Line
	6100 850  6100 700 
Wire Wire Line
	5600 950  5600 850 
Wire Wire Line
	5600 850  6100 850 
Connection ~ 6100 850 
Wire Wire Line
	6450 950  6450 800 
Wire Wire Line
	6450 800  5550 800 
Wire Wire Line
	5550 800  5550 700 
Wire Wire Line
	5500 800  5550 800 
Wire Wire Line
	5500 800  5500 950 
Connection ~ 5550 800 
Wire Wire Line
	6450 1350 6450 1450
Wire Wire Line
	6450 1450 6550 1450
Wire Wire Line
	6550 1450 6550 1350
Wire Wire Line
	6550 1450 6550 1550
Connection ~ 6550 1450
Wire Wire Line
	4900 1450 5500 1450
Wire Wire Line
	4900 1450 4900 2000
Connection ~ 5500 1450
Wire Wire Line
	6550 1550 5000 1550
Wire Wire Line
	5000 1550 5000 2000
$Comp
L Connector:Conn_01x05_Female J3
U 1 1 5D360124
P 4800 2300
F 0 "J3" V 4740 2012 50  0000 R CNN
F 1 "Conn_01x05_Female" V 4649 2012 50  0000 R CNN
F 2 "" H 4800 2300 50  0001 C CNN
F 3 "~" H 4800 2300 50  0001 C CNN
	1    4800 2300
	0    -1   -1   0   
$EndComp
Wire Wire Line
	4900 2500 4900 2850
Wire Wire Line
	4900 2850 7150 2850
Wire Wire Line
	5500 2900 5000 2900
Wire Wire Line
	5000 2900 5000 2500
Wire Wire Line
	6050 4800 6300 4800
Wire Wire Line
	9300 1900 10000 1900
Wire Wire Line
	10000 1900 10000 2800
Wire Wire Line
	10000 3600 9300 3600
Connection ~ 9300 1900
Wire Wire Line
	9300 1900 9300 2100
Connection ~ 9300 3600
Wire Wire Line
	9300 3600 9300 3800
Wire Wire Line
	10000 2800 10300 2800
Connection ~ 10000 2800
Wire Wire Line
	10000 2800 10000 3600
$Comp
L power:GND #PWR06
U 1 1 5D37A742
P 10300 2800
F 0 "#PWR06" H 10300 2550 50  0001 C CNN
F 1 "GND" V 10305 2672 50  0000 R CNN
F 2 "" H 10300 2800 50  0001 C CNN
F 3 "" H 10300 2800 50  0001 C CNN
	1    10300 2800
	0    -1   -1   0   
$EndComp
$Comp
L remote_block:Remote_relay K_REM1
U 1 1 5D37AB71
P 4000 4050
F 0 "K_REM1" H 4025 4565 50  0000 C CNN
F 1 "Remote_relay" H 4025 4474 50  0000 C CNN
F 2 "" H 4000 3900 50  0001 C CNN
F 3 "" H 4000 3900 50  0001 C CNN
	1    4000 4050
	1    0    0    -1  
$EndComp
Wire Wire Line
	5300 3700 4900 3700
Connection ~ 5300 3700
Wire Wire Line
	5300 3700 5300 3300
Wire Wire Line
	6300 3300 5300 3300
Wire Wire Line
	4900 3700 4900 4200
Wire Wire Line
	4500 4200 4900 4200
Connection ~ 4900 4200
Wire Wire Line
	3550 3800 3400 3800
Wire Wire Line
	4900 4200 4900 4350
Wire Wire Line
	4900 4650 4900 4800
$Comp
L Device:Fuse F1
U 1 1 5D2E63DC
P 4900 4500
F 0 "F1" H 4960 4546 50  0000 L CNN
F 1 "Fuse" H 4960 4455 50  0000 L CNN
F 2 "" V 4830 4500 50  0001 C CNN
F 3 "~" H 4900 4500 50  0001 C CNN
	1    4900 4500
	1    0    0    -1  
$EndComp
Wire Wire Line
	5750 3700 5600 3700
Wire Wire Line
	5600 3700 5600 4800
Connection ~ 5600 4800
Wire Wire Line
	5600 4800 5750 4800
Wire Wire Line
	4900 4800 5600 4800
Connection ~ 4900 4800
Wire Wire Line
	4500 3950 4650 3950
Wire Wire Line
	4650 3150 4650 3950
Wire Wire Line
	3100 3250 4500 3250
Wire Wire Line
	4500 3250 4500 3800
Wire Wire Line
	3100 3350 3400 3350
Wire Wire Line
	3400 3350 3400 3800
Wire Wire Line
	4800 3150 4800 2500
Wire Wire Line
	3100 3150 4650 3150
Connection ~ 4650 3150
Wire Wire Line
	4650 3150 4800 3150
Wire Wire Line
	4600 2500 4600 3050
Wire Wire Line
	4600 3050 4500 3050
Wire Wire Line
	4500 3050 4500 3250
Connection ~ 4500 3250
Wire Wire Line
	3400 3350 4200 3350
Wire Wire Line
	4200 3350 4200 2950
Wire Wire Line
	4200 2950 4700 2950
Wire Wire Line
	4700 2950 4700 2500
Connection ~ 3400 3350
Wire Wire Line
	3150 4200 3550 4200
Wire Wire Line
	3100 4800 4900 4800
Wire Notes Line
	3250 5100 7550 5100
Wire Notes Line
	7550 5050 7550 2700
Wire Notes Line
	3250 2700 7550 2700
Wire Notes Line
	3250 5100 3250 2700
$EndSCHEMATC
